| Group cran by the package variable and store the result in a new object called by_package.

> by_package <- group_by(cran, package)

|> by_package
Source: local data frame [225,468 x 11]
Groups: package [6,023]

       X       date     time    size r_version r_arch      r_os      package version country
   <int>      <chr>    <chr>   <int>     <chr>  <chr>     <chr>        <chr>   <chr>   <chr>
1      1 2014-07-08 00:54:41   80589     3.1.0 x86_64   mingw32    htmltools   0.2.4      US
2      2 2014-07-08 00:59:53  321767     3.1.0 x86_64   mingw32      tseries 0.10-32      US
3      3 2014-07-08 00:47:13  748063     3.1.0 x86_64 linux-gnu        party  1.0-15      US
4      4 2014-07-08 00:48:05  606104     3.1.0 x86_64 linux-gnu        Hmisc  3.14-4      US
5      5 2014-07-08 00:46:50   79825     3.0.2 x86_64 linux-gnu       digest   0.6.4      CA
6      6 2014-07-08 00:48:04   77681     3.1.0 x86_64 linux-gnu randomForest   4.6-7      US
7      7 2014-07-08 00:48:35  393754     3.1.0 x86_64 linux-gnu         plyr   1.8.1      US
8      8 2014-07-08 00:47:30   28216     3.0.2 x86_64 linux-gnu      whisker   0.3-2      US
9      9 2014-07-08 00:54:58    5928      <NA>   <NA>      <NA>         Rcpp  0.10.4      CN
10    10 2014-07-08 00:15:35 2206029     3.0.2 x86_64 linux-gnu     hflights     0.1      US
# ... with 225,458 more rows, and 1 more variables: ip_id <int>

| That's exactly what you'll get if you use summarize() to apply mean(size) to the grouped
| data in by_package. Give it a shot.

>  summarize(by_package, mean(size))
# A tibble: 6,023 × 2
       package `mean(size)`
         <chr>        <dbl>
1           A3     62194.96
2          abc   4826665.00
3     abcdeFBA    455979.87
4  ABCExtremes     22904.33
5     ABCoptim     17807.25
6        ABCp2     30473.33
7     abctools   2589394.00
8          abd    453631.24
9         abf2     35692.62
10       abind     32938.88
# ... with 6,013 more rows
…
sat %>%
  select(-contains("total")) %>%
  gather(part_sex, count, -score_range) %>%
  separate(col = part_sex, into = c("part", "sex")) %>%
  print

  # A tibble: 36 × 4
     score_range  part   sex  count
  *        <chr> <chr> <chr>  <int>
  1      700-800  read  male  40151
  2      600-690  read  male 121950
  3      500-590  read  male 227141
  4      400-490  read  male 242554
  5      300-390  read  male 113568
  6      200-290  read  male  30728
  7      700-800  read   fem  38898
  8      600-690  read   fem 126084
  9      500-590  read   fem 259553
  10     400-490  read   fem 296793
  # ... with 26 more rows

  sat %>%
    select(-contains("total")) %>%
    gather(part_sex, count, -score_range) %>%
    separate(part_sex, c("part", "sex")) %>%
    group_by(part, sex) %>%
    mutate(total = sum(count),
           prop = count / total
    ) %>% print

    Source: local data frame [36 x 6]
    Groups: part, sex [6]

       score_range  part   sex  count  total       prop
             <chr> <chr> <chr>  <int>  <int>      <dbl>
    1      700-800  read  male  40151 776092 0.05173485
    2      600-690  read  male 121950 776092 0.15713343
    3      500-590  read  male 227141 776092 0.29267278
    4      400-490  read  male 242554 776092 0.31253253
    5      300-390  read  male 113568 776092 0.14633317
    6      200-290  read  male  30728 776092 0.03959324
    7      700-800  read   fem  38898 883955 0.04400450
    8      600-690  read   fem 126084 883955 0.14263622
    9      500-590  read   fem 259553 883955 0.29362694
    10     400-490  read   fem 296793 883955 0.33575578
    # ... with 26 more rows
